Log Entry : 
2016-dic-11 01:13:44
El usuario: asdf con IP: kk ha realizado la operacion jj en jjjj
--------------------------------------------------------------------------------------------------------
Log Entry : 
2016-dic-11 01:42:15
El usuario: Lourdes con IP: localhost ha realizado la operacion getVolumen en sonda1
--------------------------------------------------------------------------------------------------------
Log Entry : 
2016-dic-12 23:47:41
El usuario: Lourdes con IP: localhost ha realizado la operacion getVolumen en sonda1
--------------------------------------------------------------------------------------------------------
Log Entry : 
2016-dic-12 23:47:47
El usuario: Lourdes con IP: localhost ha realizado la operacion getVolumen en sonda1
--------------------------------------------------------------------------------------------------------
Log Entry : 
2016-dic-13 15:21:08
El usuario: ZY2O0QydRA9JvzwJgLsZuQ== con IP: dBU6N4kNwd6kUkM0IjwkJw== ha realizado la operacion yBZ7uFGn3/ZJESi15wfwVw== en mJIro20mq25u7smsdvJgWg==
--------------------------------------------------------------------------------------------------------
Log Entry : 
2016-dic-13 15:23:03
El usuario: ZY2O0QydRA9JvzwJgLsZuQ== con IP: dBU6N4kNwd6kUkM0IjwkJw== ha realizado la operacion IsMVzdSGNbZNKiiw0iiVSQ== en mJIro20mq25u7smsdvJgWg==
--------------------------------------------------------------------------------------------------------
Log Entry : 
2016-dic-13 15:23:29
El usuario: ZY2O0QydRA9JvzwJgLsZuQ== con IP: dBU6N4kNwd6kUkM0IjwkJw== ha realizado la operacion IsMVzdSGNbZNKiiw0iiVSQ== en mJIro20mq25u7smsdvJgWg==
--------------------------------------------------------------------------------------------------------
Log Entry : 
2016-dic-13 15:23:48
El usuario: ZY2O0QydRA9JvzwJgLsZuQ== con IP: dBU6N4kNwd6kUkM0IjwkJw== ha realizado la operacion IsMVzdSGNbZNKiiw0iiVSQ== en mJIro20mq25u7smsdvJgWg==
--------------------------------------------------------------------------------------------------------
Log Entry : 
2016-dic-13 15:46:58
El usuario: usuario con IP: ip ha realizado la operacion operacion en elemento55
--------------------------------------------------------------------------------------------------------
Log Entry : 
2016-dic-13 15:47:17
El usuario: usuario con IP: ip ha realizado la operacion operacion en elemento55
--------------------------------------------------------------------------------------------------------
Log Entry : 
2016-dic-13 15:49:00
El usuario: usuario con IP: ip ha realizado la operacion operacion en elemento55
--------------------------------------------------------------------------------------------------------
Log Entry : 
2016-dic-13 16:05:47
El usuario: usuario con IP: ip ha realizado la operacion operacion en elemento55
--------------------------------------------------------------------------------------------------------
Log Entry : 
2016-dic-13 16:11:03
El usuario: Lourdes con IP: localhost ha realizado la operacion Volumen en sonda1
--------------------------------------------------------------------------------------------------------
Log Entry : 
2016-dic-13 16:11:08
El usuario: Lourdes con IP: localhost ha realizado la operacion Color LED en sonda1
--------------------------------------------------------------------------------------------------------
Log Entry : 
2016-dic-13 16:11:30
El usuario: Lourdes con IP: localhost ha realizado la operacion cambiarLED en sonda1
--------------------------------------------------------------------------------------------------------
Log Entry : 
2016-dic-13 16:13:17
El usuario: Lourdes con IP: localhost ha realizado la operacion cambiarLED en sonda1
--------------------------------------------------------------------------------------------------------
Log Entry : 
2016-dic-13 16:13:26
El usuario: Lourdes con IP: localhost ha realizado la operacion Color LED en sonda1
--------------------------------------------------------------------------------------------------------
